modules/pwm/pwm.vcd
$date
	Fri Sep 20 22:09:08 2024
$end
$version
	Icarus Verilog
$end
$timescale
	1ps
$end
$scope module pwm_tb $end
$var wire 1 ! LED0 $end
$var reg 1 " clk $end
$scope module uut $end
$var wire 1 ! LED0 $end
$var wire 1 " clk $end
$var reg 1 # led0_state $end
$upscope $end
$upscope $end
$enddefinitions $end
$comment Show the parameter values. $end
$dumpall
$end
#0
$dumpvars
0#
0"
0!
$end
#5000
1!
1#
1"
#10000
0"
#15000
0!
0#
1"
#20000
0"
#25000
1!
1#
1"
#30000
0"
#35000
0!
0#
1"
#40000
0"
#45000
1!
1#
1"
#50000
0"
#55000
0!
0#
1"
#60000
0"
#65000
1!
1#
1"
#70000
0"
#75000
0!
0#
1"
#80000
0"
#85000
1!
1#
1"
#90000
0"
#95000
0!
0#
1"
